//////////////////////////////////////////
		CONTROLES
//////////////////////////////////////////

Up: 	Acticvar cesta
Left: 	Activar movimiento hacia la izquierda
Right: 	Acticvar movimiento hacia la derecha
Left: 	Activar frenos